{
    "79E1732D-99B0-4766-99BB-C2F15042E9AC": {
        "1": {
            "1082_5851": {
                "acy": "108",
                "sem": "2",
                "cos_id": "5851",
                "cos_code": "ICS5007",
                "num_limit": "9999",
                "dep_limit": "*",
                "URL": null,
                "cos_cname": "個別研究",
                "cos_credit": "1.00",
                "cos_hours": "1.00",
                "TURL": "",
                "teacher": "邱德亮",
                "cos_time": "",
                "memo": "",
                "cos_ename": "Independent Study",
                "brief": "",
                "degree": "2",
                "dep_id": "49",
                "dep_primary": "1",
                "dep_cname": "社會與文化研究所",
                "dep_ename": "Institute for Social Research and Cultural Studies",
                "cos_type": "必修",
                "cos_type_e": "Required",
                "crsoutline_type": "data",
                "reg_num": "3",
                "depType": "G"
            },
            "1082_5852": {
                "acy": "108",
                "sem": "2",
                "cos_id": "5852",
                "cos_code": "ICS5007",
                "num_limit": "9999",
                "dep_limit": "*",
                "URL": null,
                "cos_cname": "個別研究",
                "cos_credit": "1.00",
                "cos_hours": "1.00",
                "TURL": "",
                "teacher": "陳奕麟",
                "cos_time": "",
                "memo": "",
                "cos_ename": "Independent Study",
                "brief": "",
                "degree": "2",
                "dep_id": "49",
                "dep_primary": "1",
                "dep_cname": "社會與文化研究所",
                "dep_ename": "Institute for Social Research and Cultural Studies",
                "cos_type": "必修",
                "cos_type_e": "Required",
                "crsoutline_type": "data",
                "reg_num": "1",
                "depType": "G"
            },
            "1082_5853": {
                "acy": "108",
                "sem": "2",
                "cos_id": "5853",
                "cos_code": "ICS5007",
                "num_limit": "9999",
                "dep_limit": "*",
                "URL": null,
                "cos_cname": "個別研究",
                "cos_credit": "1.00",
                "cos_hours": "1.00",
                "TURL": "http://www.srcs.nctu.edu.tw/joyceliu/",
                "teacher": "劉紀蕙",
                "cos_time": "",
                "memo": "",
                "cos_ename": "Independent Study",
                "brief": "",
                "degree": "2",
                "dep_id": "49",
                "dep_primary": "1",
                "dep_cname": "社會與文化研究所",
                "dep_ename": "Institute for Social Research and Cultural Studies",
                "cos_type": "必修",
                "cos_type_e": "Required",
                "crsoutline_type": "data",
                "reg_num": "10",
                "depType": "G"
            },
            "1082_5854": {
                "acy": "108",
                "sem": "2",
                "cos_id": "5854",
                "cos_code": "ICS5007",
                "num_limit": "9999",
                "dep_limit": "*",
                "URL": null,
                "cos_cname": "個別研究",
                "cos_credit": "1.00",
                "cos_hours": "1.00",
                "TURL": "",
                "teacher": "蔡華臻",
                "cos_time": "",
                "memo": "",
                "cos_ename": "Independent Study",
                "brief": "",
                "degree": "2",
                "dep_id": "49",
                "dep_primary": "1",
                "dep_cname": "社會與文化研究所",
                "dep_ename": "Institute for Social Research and Cultural Studies",
                "cos_type": "必修",
                "cos_type_e": "Required",
                "crsoutline_type": "data",
                "reg_num": "3",
                "depType": "G"
            },
            "1082_5855": {
                "acy": "108",
                "sem": "2",
                "cos_id": "5855",
                "cos_code": "ICS5007",
                "num_limit": "9999",
                "dep_limit": "*",
                "URL": null,
                "cos_cname": "個別研究",
                "cos_credit": "1.00",
                "cos_hours": "1.00",
                "TURL": "",
                "teacher": "朱元鴻",
                "cos_time": "",
                "memo": "",
                "cos_ename": "Independent Study",
                "brief": "",
                "degree": "2",
                "dep_id": "49",
                "dep_primary": "1",
                "dep_cname": "社會與文化研究所",
                "dep_ename": "Institute for Social Research and Cultural Studies",
                "cos_type": "必修",
                "cos_type_e": "Required",
                "crsoutline_type": "data",
                "reg_num": "1",
                "depType": "G"
            },
            "1082_5856": {
                "acy": "108",
                "sem": "2",
                "cos_id": "5856",
                "cos_code": "ICS5007",
                "num_limit": "9999",
                "dep_limit": "*",
                "URL": null,
                "cos_cname": "個別研究",
                "cos_credit": "1.00",
                "cos_hours": "1.00",
                "TURL": "",
                "teacher": "彭明偉",
                "cos_time": "",
                "memo": "",
                "cos_ename": "Independent Study",
                "brief": "",
                "degree": "2",
                "dep_id": "49",
                "dep_primary": "1",
                "dep_cname": "社會與文化研究所",
                "dep_ename": "Institute for Social Research and Cultural Studies",
                "cos_type": "必修",
                "cos_type_e": "Required",
                "crsoutline_type": "data",
                "reg_num": "2",
                "depType": "G"
            },
            "1082_5857": {
                "acy": "108",
                "sem": "2",
                "cos_id": "5857",
                "cos_code": "ICS5007",
                "num_limit": "9999",
                "dep_limit": "*",
                "URL": null,
                "cos_cname": "個別研究",
                "cos_credit": "1.00",
                "cos_hours": "1.00",
                "TURL": "",
                "teacher": "蔡晏霖",
                "cos_time": "",
                "memo": "",
                "cos_ename": "Independent Study",
                "brief": "",
                "degree": "2",
                "dep_id": "49",
                "dep_primary": "1",
                "dep_cname": "社會與文化研究所",
                "dep_ename": "Institute for Social Research and Cultural Studies",
                "cos_type": "必修",
                "cos_type_e": "Required",
                "crsoutline_type": "data",
                "reg_num": "1",
                "depType": "G"
            },
            "1082_5858": {
                "acy": "108",
                "sem": "2",
                "cos_id": "5858",
                "cos_code": "ICS5007",
                "num_limit": "9999",
                "dep_limit": "*",
                "URL": null,
                "cos_cname": "個別研究",
                "cos_credit": "1.00",
                "cos_hours": "1.00",
                "TURL": "http://hs.nctu.edu.tw/Faculty/YCCuang",
                "teacher": "莊雅仲",
                "cos_time": "",
                "memo": "",
                "cos_ename": "Independent Study",
                "brief": "",
                "degree": "2",
                "dep_id": "49",
                "dep_primary": "1",
                "dep_cname": "社會與文化研究所",
                "dep_ename": "Institute for Social Research and Cultural Studies",
                "cos_type": "必修",
                "cos_type_e": "Required",
                "crsoutline_type": "data",
                "reg_num": "4",
                "depType": "G"
            },
            "1082_5859": {
                "acy": "108",
                "sem": "2",
                "cos_id": "5859",
                "cos_code": "ICS5014",
                "num_limit": "9999",
                "dep_limit": "*",
                "URL": null,
                "cos_cname": "學術訓練討論課",
                "cos_credit": "3.00",
                "cos_hours": "3.00",
                "TURL": "",
                "teacher": "朱元鴻",
                "cos_time": "W34n-F106A",
                "memo": "",
                "cos_ename": "Pro-seminar",
                "brief": "",
                "degree": "2",
                "dep_id": "49",
                "dep_primary": "1",
                "dep_cname": "社會與文化研究所",
                "dep_ename": "Institute for Social Research and Cultural Studies",
                "cos_type": "必修",
                "cos_type_e": "Required",
                "crsoutline_type": "data",
                "reg_num": "11",
                "depType": "G"
            },
            "1082_5860": {
                "acy": "108",
                "sem": "2",
                "cos_id": "5860",
                "cos_code": "ICS5390",
                "num_limit": "9999",
                "dep_limit": "*",
                "URL": null,
                "cos_cname": "跨國主義與文化",
                "cos_credit": "3.00",
                "cos_hours": "3.00",
                "TURL": "",
                "teacher": "陳奕麟",
                "cos_time": "Wabc-F106A",
                "memo": "[English Medium Course]",
                "cos_ename": "Reading Seminar: Transnationalism and Culture",
                "brief": "",
                "degree": "2",
                "dep_id": "49",
                "dep_primary": "1",
                "dep_cname": "社會與文化研究所",
                "dep_ename": "Institute for Social Research and Cultural Studies",
                "cos_type": "選修",
                "cos_type_e": "Elective",
                "crsoutline_type": "data",
                "reg_num": "8",
                "depType": "G"
            },
            "1082_5861": {
                "acy": "108",
                "sem": "2",
                "cos_id": "5861",
                "cos_code": "ICS5340",
                "num_limit": "9999",
                "dep_limit": "*",
                "URL": null,
                "cos_cname": "魯迅文學研究專題",
                "cos_credit": "3.00",
                "cos_hours": "3.00",
                "TURL": "",
                "teacher": "彭明偉",
                "cos_time": "R34n-F106A",
                "memo": "",
                "cos_ename": "Seminar on Luxun’s Literature",
                "brief": "",
                "degree": "2",
                "dep_id": "49",
                "dep_primary": "1",
                "dep_cname": "社會與文化研究所",
                "dep_ename": "Institute for Social Research and Cultural Studies",
                "cos_type": "選修",
                "cos_type_e": "Elective",
                "crsoutline_type": "data",
                "reg_num": "8",
                "depType": "G"
            },
            "1082_5862": {
                "acy": "108",
                "sem": "2",
                "cos_id": "5862",
                "cos_code": "ICS5383",
                "num_limit": "9999",
                "dep_limit": "*",
                "URL": null,
                "cos_cname": "治理技術重探：感知、物流與基礎建設",
                "cos_credit": "3.00",
                "cos_hours": "3.00",
                "TURL": "http://www.srcs.nctu.edu.tw/joyceliu/",
                "teacher": "劉紀蕙",
                "cos_time": "T34n-F106A",
                "memo": "雙語授課[English Medium Course]",
                "cos_ename": "Techniques of Governmentality: Perception, Logistics, and Infrastructure",
                "brief": "",
                "degree": "2",
                "dep_id": "49",
                "dep_primary": "1",
                "dep_cname": "社會與文化研究所",
                "dep_ename": "Institute for Social Research and Cultural Studies",
                "cos_type": "選修",
                "cos_type_e": "Elective",
                "crsoutline_type": "data",
                "reg_num": "10",
                "depType": "G"
            },
            "1082_5863": {
                "acy": "108",
                "sem": "2",
                "cos_id": "5863",
                "cos_code": "ICS5384",
                "num_limit": "9999",
                "dep_limit": "*",
                "URL": null,
                "cos_cname": "文化脈絡中的天才與白痴",
                "cos_credit": "3.00",
                "cos_hours": "3.00",
                "TURL": "",
                "teacher": "朱元鴻",
                "cos_time": "Tabc-F106A",
                "memo": "雙語授課",
                "cos_ename": "Genius and Idiocy in Cultural Contexts",
                "brief": "",
                "degree": "2",
                "dep_id": "49",
                "dep_primary": "1",
                "dep_cname": "社會與文化研究所",
                "dep_ename": "Institute for Social Research and Cultural Studies",
                "cos_type": "選修",
                "cos_type_e": "Elective",
                "crsoutline_type": "data",
                "reg_num": "7",
                "depType": "G"
            },
            "1082_5864": {
                "acy": "108",
                "sem": "2",
                "cos_id": "5864",
                "cos_code": "ICS5385",
                "num_limit": "9999",
                "dep_limit": "*",
                "URL": null,
                "cos_cname": "作品閱讀與接受的文化研究",
                "cos_credit": "3.00",
                "cos_hours": "3.00",
                "TURL": "",
                "teacher": "邱德亮",
                "cos_time": "F34n-F106A",
                "memo": "",
                "cos_ename": "Studies in the Reading Culture and the Reception Theories",
                "brief": "",
                "degree": "2",
                "dep_id": "49",
                "dep_primary": "1",
                "dep_cname": "社會與文化研究所",
                "dep_ename": "Institute for Social Research and Cultural Studies",
                "cos_type": "選修",
                "cos_type_e": "Elective",
                "crsoutline_type": "data",
                "reg_num": "4",
                "depType": "G"
            },
            "1082_5865": {
                "acy": "108",
                "sem": "2",
                "cos_id": "5865",
                "cos_code": "ICS5386",
                "num_limit": "9999",
                "dep_limit": "*",
                "URL": null,
                "cos_cname": "防疫共同體",
                "cos_credit": "3.00",
                "cos_hours": "3.00",
                "TURL": "",
                "teacher": "林淑芬",
                "cos_time": "T567-F106A",
                "memo": "",
                "cos_ename": "Community and Immunity",
                "brief": "",
                "degree": "2",
                "dep_id": "49",
                "dep_primary": "1",
                "dep_cname": "社會與文化研究所",
                "dep_ename": "Institute for Social Research and Cultural Studies",
                "cos_type": "選修",
                "cos_type_e": "Elective",
                "crsoutline_type": "data",
                "reg_num": "8",
                "depType": "G"
            },
            "1082_5866": {
                "acy": "108",
                "sem": "2",
                "cos_id": "5866",
                "cos_code": "ICS5387",
                "num_limit": "9999",
                "dep_limit": "*",
                "URL": null,
                "cos_cname": "法蘭克福學派論電影、現代性與大眾文化",
                "cos_credit": "3.00",
                "cos_hours": "3.00",
                "TURL": "",
                "teacher": "蔡華臻",
                "cos_time": "R567-F106A",
                "memo": "[English Medium Course]",
                "cos_ename": "The Frankfurt School on Cinema, Modernity, and Mass Culture",
                "brief": "",
                "degree": "2",
                "dep_id": "49",
                "dep_primary": "1",
                "dep_cname": "社會與文化研究所",
                "dep_ename": "Institute for Social Research and Cultural Studies",
                "cos_type": "選修",
                "cos_type_e": "Elective",
                "crsoutline_type": "data",
                "reg_num": "12",
                "depType": "G"
            },
            "1082_5867": {
                "acy": "108",
                "sem": "2",
                "cos_id": "5867",
                "cos_code": "ICS5388",
                "num_limit": "9999",
                "dep_limit": "*",
                "URL": null,
                "cos_cname": "臺灣研究導論",
                "cos_credit": "3.00",
                "cos_hours": "3.00",
                "TURL": "",
                "teacher": "王智明",
                "cos_time": "M567-F106A",
                "memo": "[English Medium Course]",
                "cos_ename": "Introduction to Taiwan Studies",
                "brief": "",
                "degree": "2",
                "dep_id": "49",
                "dep_primary": "1",
                "dep_cname": "社會與文化研究所",
                "dep_ename": "Institute for Social Research and Cultural Studies",
                "cos_type": "選修",
                "cos_type_e": "Elective",
                "crsoutline_type": "data",
                "reg_num": "11",
                "depType": "G"
            },
            "1082_5868": {
                "acy": "108",
                "sem": "2",
                "cos_id": "5868",
                "cos_code": "ICS5389",
                "num_limit": "9999",
                "dep_limit": "*",
                "URL": null,
                "cos_cname": "剖析電影中的種族優越主義與種類(複數)語法",
                "cos_credit": "1.00",
                "cos_hours": "1.00",
                "TURL": "",
                "teacher": "Alain Brossat",
                "cos_time": "M34n-F106A",
                "memo": "[English Medium Course]",
                "cos_ename": "Racial supremacism and the grammar of species in films",
                "brief": "",
                "degree": "2",
                "dep_id": "49",
                "dep_primary": "1",
                "dep_cname": "社會與文化研究所",
                "dep_ename": "Institute for Social Research and Cultural Studies",
                "cos_type": "選修",
                "cos_type_e": "Elective",
                "crsoutline_type": "data",
                "reg_num": "8",
                "depType": "G"
            },
            "1082_5902": {
                "acy": "108",
                "sem": "2",
                "cos_id": "5902",
                "cos_code": "ICS5007",
                "num_limit": "9999",
                "dep_limit": "*",
                "URL": null,
                "cos_cname": "個別研究",
                "cos_credit": "1.00",
                "cos_hours": "1.00",
                "TURL": "",
                "teacher": "林淑芬",
                "cos_time": "",
                "memo": "",
                "cos_ename": "Independent Study",
                "brief": "",
                "degree": "2",
                "dep_id": "49",
                "dep_primary": "1",
                "dep_cname": "社會與文化研究所",
                "dep_ename": "Institute for Social Research and Cultural Studies",
                "cos_type": "必修",
                "cos_type_e": "Required",
                "crsoutline_type": "data",
                "reg_num": "6",
                "depType": "G"
            }
        },
        "2": {
            "1082_5881": {
                "acy": "108",
                "sem": "2",
                "cos_id": "5881",
                "cos_code": "INA5203",
                "num_limit": "9999",
                "dep_limit": "*",
                "URL": null,
                "cos_cname": "都市人類學",
                "cos_credit": "3.00",
                "cos_hours": "3.00",
                "TURL": "http://hs.nctu.edu.tw/Faculty/YCCuang",
                "teacher": "莊雅仲",
                "cos_time": "W234-HK207[LJ]",
                "memo": "",
                "cos_ename": "Urban Anthropology",
                "brief": "",
                "degree": "2",
                "dep_id": "49",
                "dep_primary": "2",
                "dep_cname": "社會與文化研究所",
                "dep_ename": "Institute for Social Research and Cultural Studies",
                "cos_type": "選修",
                "cos_type_e": "Elective",
                "crsoutline_type": "data",
                "reg_num": "15",
                "depType": "G"
            },
            "1082_5884": {
                "acy": "108",
                "sem": "2",
                "cos_id": "5884",
                "cos_code": "INA5206",
                "num_limit": "9999",
                "dep_limit": "*",
                "URL": null,
                "cos_cname": "台灣與馬來世界",
                "cos_credit": "3.00",
                "cos_hours": "3.00",
                "TURL": "",
                "teacher": "蔡秀敏",
                "cos_time": "T234-HK207[LJ]",
                "memo": "",
                "cos_ename": "Taiwan and the Malay World",
                "brief": "",
                "degree": "2",
                "dep_id": "49",
                "dep_primary": "2",
                "dep_cname": "社會與文化研究所",
                "dep_ename": "Institute for Social Research and Cultural Studies",
                "cos_type": "選修",
                "cos_type_e": "Elective",
                "crsoutline_type": "data",
                "reg_num": "8",
                "depType": "G"
            },
            "1082_4027": {
                "acy": "108",
                "sem": "2",
                "cos_id": "4027",
                "cos_code": "ICS5015",
                "num_limit": "9999",
                "dep_limit": "*",
                "URL": null,
                "cos_cname": "學術訓練討論課(博)",
                "cos_credit": "3.00",
                "cos_hours": "3.00",
                "TURL": "http://www.srcs.nctu.edu.tw/joyceliu/",
                "teacher": "劉紀蕙",
                "cos_time": "W34n-F106A",
                "memo": "",
                "cos_ename": "Pro-seminar (PHD)",
                "brief": "",
                "degree": "1",
                "dep_id": "49",
                "dep_primary": "1",
                "dep_cname": "社會與文化研究所",
                "dep_ename": "Institute for Social Research and Cultural Studies",
                "cos_type": "必修",
                "cos_type_e": "Required",
                "crsoutline_type": "data",
                "reg_num": "6",
                "depType": "D"
            }
        },
        "dep_id": "79E1732D-99B0-4766-99BB-C2F15042E9AC",
        "dep_cname": "社會與文化研究所",
        "dep_ename": "Institute for Social Research and Cultural Studies",
        "costype": {
            "1082_5851": {
                "": {
                    "course_category_cname": "",
                    "course_category_ename": "",
                    "course_category_type": "",
                    "GECIName": "",
                    "GECIEngName": ""
                }
            },
            "1082_5852": {
                "": {
                    "course_category_cname": "",
                    "course_category_ename": "",
                    "course_category_type": "",
                    "GECIName": "",
                    "GECIEngName": ""
                }
            },
            "1082_5853": {
                "": {
                    "course_category_cname": "",
                    "course_category_ename": "",
                    "course_category_type": "",
                    "GECIName": "",
                    "GECIEngName": ""
                }
            },
            "1082_5854": {
                "": {
                    "course_category_cname": "",
                    "course_category_ename": "",
                    "course_category_type": "",
                    "GECIName": "",
                    "GECIEngName": ""
                }
            },
            "1082_5855": {
                "": {
                    "course_category_cname": "",
                    "course_category_ename": "",
                    "course_category_type": "",
                    "GECIName": "",
                    "GECIEngName": ""
                }
            },
            "1082_5856": {
                "": {
                    "course_category_cname": "",
                    "course_category_ename": "",
                    "course_category_type": "",
                    "GECIName": "",
                    "GECIEngName": ""
                }
            },
            "1082_5857": {
                "": {
                    "course_category_cname": "",
                    "course_category_ename": "",
                    "course_category_type": "",
                    "GECIName": "",
                    "GECIEngName": ""
                }
            },
            "1082_5858": {
                "": {
                    "course_category_cname": "",
                    "course_category_ename": "",
                    "course_category_type": "",
                    "GECIName": "",
                    "GECIEngName": ""
                }
            },
            "1082_5859": {
                "": {
                    "course_category_cname": "",
                    "course_category_ename": "",
                    "course_category_type": "",
                    "GECIName": "",
                    "GECIEngName": ""
                }
            },
            "1082_5860": {
                "": {
                    "course_category_cname": "",
                    "course_category_ename": "",
                    "course_category_type": "",
                    "GECIName": "",
                    "GECIEngName": ""
                }
            },
            "1082_5861": {
                "通識校基本素養_通識校基本": {
                    "course_category_cname": "通識校基本素養_通識校基本",
                    "course_category_ename": "General Education Course: Literacy_GECL",
                    "course_category_type": "15",
                    "GECIName": "",
                    "GECIEngName": ""
                }
            },
            "1082_5862": {
                "": {
                    "course_category_cname": "",
                    "course_category_ename": "",
                    "course_category_type": "",
                    "GECIName": "",
                    "GECIEngName": ""
                }
            },
            "1082_5863": {
                "": {
                    "course_category_cname": "",
                    "course_category_ename": "",
                    "course_category_type": "",
                    "GECIName": "",
                    "GECIEngName": ""
                }
            },
            "1082_5864": {
                "": {
                    "course_category_cname": "",
                    "course_category_ename": "",
                    "course_category_type": "",
                    "GECIName": "",
                    "GECIEngName": ""
                }
            },
            "1082_5865": {
                "": {
                    "course_category_cname": "",
                    "course_category_ename": "",
                    "course_category_type": "",
                    "GECIName": "",
                    "GECIEngName": ""
                }
            },
            "1082_5866": {
                "": {
                    "course_category_cname": "",
                    "course_category_ename": "",
                    "course_category_type": "",
                    "GECIName": "",
                    "GECIEngName": ""
                }
            },
            "1082_5867": {
                "": {
                    "course_category_cname": "",
                    "course_category_ename": "",
                    "course_category_type": "",
                    "GECIName": "",
                    "GECIEngName": ""
                }
            },
            "1082_5868": {
                "": {
                    "course_category_cname": "",
                    "course_category_ename": "",
                    "course_category_type": "",
                    "GECIName": "",
                    "GECIEngName": ""
                }
            },
            "1082_5881": {
                "": {
                    "course_category_cname": "",
                    "course_category_ename": "",
                    "course_category_type": "",
                    "GECIName": "",
                    "GECIEngName": ""
                }
            },
            "1082_5884": {
                "": {
                    "course_category_cname": "",
                    "course_category_ename": "",
                    "course_category_type": "",
                    "GECIName": "",
                    "GECIEngName": ""
                }
            },
            "1082_5902": {
                "": {
                    "course_category_cname": "",
                    "course_category_ename": "",
                    "course_category_type": "",
                    "GECIName": "",
                    "GECIEngName": ""
                }
            },
            "1082_4027": {
                "": {
                    "course_category_cname": "",
                    "course_category_ename": "",
                    "course_category_type": "",
                    "GECIName": "",
                    "GECIEngName": ""
                }
            }
        },
        "brief": {
            "1082_5851": {
                "": {
                    "brief_code": "",
                    "brief": ""
                }
            },
            "1082_5852": {
                "": {
                    "brief_code": "",
                    "brief": ""
                }
            },
            "1082_5853": {
                "": {
                    "brief_code": "",
                    "brief": ""
                }
            },
            "1082_5854": {
                "": {
                    "brief_code": "",
                    "brief": ""
                }
            },
            "1082_5855": {
                "": {
                    "brief_code": "",
                    "brief": ""
                }
            },
            "1082_5856": {
                "": {
                    "brief_code": "",
                    "brief": ""
                }
            },
            "1082_5857": {
                "": {
                    "brief_code": "",
                    "brief": ""
                }
            },
            "1082_5858": {
                "": {
                    "brief_code": "",
                    "brief": ""
                }
            },
            "1082_5859": {
                "": {
                    "brief_code": "",
                    "brief": ""
                }
            },
            "1082_5860": {
                "": {
                    "brief_code": "",
                    "brief": ""
                }
            },
            "1082_5861": {
                "A201,A505": {
                    "brief_code": "A201,A505",
                    "brief": "文化/進階(96),校基本素養(106)"
                }
            },
            "1082_5862": {
                "": {
                    "brief_code": "",
                    "brief": ""
                }
            },
            "1082_5863": {
                "": {
                    "brief_code": "",
                    "brief": ""
                }
            },
            "1082_5864": {
                "": {
                    "brief_code": "",
                    "brief": ""
                }
            },
            "1082_5865": {
                "": {
                    "brief_code": "",
                    "brief": ""
                }
            },
            "1082_5866": {
                "": {
                    "brief_code": "",
                    "brief": ""
                }
            },
            "1082_5867": {
                "": {
                    "brief_code": "",
                    "brief": ""
                }
            },
            "1082_5868": {
                "": {
                    "brief_code": "",
                    "brief": ""
                }
            },
            "1082_5881": {
                "": {
                    "brief_code": "",
                    "brief": ""
                }
            },
            "1082_5884": {
                "": {
                    "brief_code": "",
                    "brief": ""
                }
            },
            "1082_5902": {
                "": {
                    "brief_code": "",
                    "brief": ""
                }
            },
            "1082_4027": {
                "": {
                    "brief_code": "",
                    "brief": ""
                }
            }
        },
        "language": {
            "1082_5851": {
                "授課語言代碼": "zh-tw"
            },
            "1082_5852": {
                "授課語言代碼": "zh-tw"
            },
            "1082_5853": {
                "授課語言代碼": "zh-tw"
            },
            "1082_5854": {
                "授課語言代碼": "zh-tw"
            },
            "1082_5855": {
                "授課語言代碼": "zh-tw"
            },
            "1082_5856": {
                "授課語言代碼": "zh-tw"
            },
            "1082_5857": {
                "授課語言代碼": "zh-tw"
            },
            "1082_5858": {
                "授課語言代碼": "zh-tw"
            },
            "1082_5859": {
                "授課語言代碼": "zh-tw"
            },
            "1082_5860": {
                "授課語言代碼": "en-us"
            },
            "1082_5861": {
                "授課語言代碼": "zh-tw"
            },
            "1082_5862": {
                "授課語言代碼": "en-us"
            },
            "1082_5863": {
                "授課語言代碼": "zh-tw"
            },
            "1082_5864": {
                "授課語言代碼": "zh-tw"
            },
            "1082_5865": {
                "授課語言代碼": "zh-tw"
            },
            "1082_5866": {
                "授課語言代碼": "en-us"
            },
            "1082_5867": {
                "授課語言代碼": "en-us"
            },
            "1082_5868": {
                "授課語言代碼": "en-us"
            },
            "1082_5881": {
                "授課語言代碼": "zh-tw"
            },
            "1082_5884": {
                "授課語言代碼": "zh-tw"
            },
            "1082_5902": {
                "授課語言代碼": "zh-tw"
            },
            "1082_4027": {
                "授課語言代碼": "zh-tw"
            }
        }
    }
}