{
    "249": {
        "1": {
            "1081_4014": {
                "acy": "108",
                "sem": "1",
                "cos_id": "4014",
                "cos_code": "ICS5010",
                "num_limit": "9999",
                "dep_limit": "*",
                "URL": null,
                "cos_cname": "文化研究理論(博)",
                "cos_credit": "3.00",
                "cos_hours": "3.00",
                "TURL": "",
                "teacher": "朱元鴻、劉紀蕙、陳奕麟",
                "cos_time": "1IJK-F106A",
                "memo": "雙語授課",
                "cos_ename": "Introduction to Cultural Theories",
                "brief": "",
                "degree": "2",
                "dep_id": "49",
                "dep_primary": "1",
                "dep_cname": "社會與文化研究所",
                "dep_ename": "Institute for Social Research and Cultural Studies",
                "cos_type": "必修",
                "cos_type_e": "Required",
                "crsoutline_type": null,
                "reg_num": "3",
                "depType": "G"
            },
            "1081_5866": {
                "acy": "108",
                "sem": "1",
                "cos_id": "5866",
                "cos_code": "ICS5007",
                "num_limit": "9999",
                "dep_limit": "*",
                "URL": null,
                "cos_cname": "個別研究",
                "cos_credit": "1.00",
                "cos_hours": "1.00",
                "TURL": "",
                "teacher": "蔡華臻",
                "cos_time": "",
                "memo": "",
                "cos_ename": "Independent Study",
                "brief": "",
                "degree": "2",
                "dep_id": "49",
                "dep_primary": "1",
                "dep_cname": "社會與文化研究所",
                "dep_ename": "Institute for Social Research and Cultural Studies",
                "cos_type": "必修",
                "cos_type_e": "Required",
                "crsoutline_type": "data",
                "reg_num": "0",
                "depType": "G"
            },
            "1081_5867": {
                "acy": "108",
                "sem": "1",
                "cos_id": "5867",
                "cos_code": "ICS5007",
                "num_limit": "9999",
                "dep_limit": "*",
                "URL": null,
                "cos_cname": "個別研究",
                "cos_credit": "1.00",
                "cos_hours": "1.00",
                "TURL": "http://www.srcs.nctu.edu.tw/joyceliu/",
                "teacher": "劉紀蕙",
                "cos_time": "",
                "memo": "",
                "cos_ename": "Independent Study",
                "brief": "",
                "degree": "2",
                "dep_id": "49",
                "dep_primary": "1",
                "dep_cname": "社會與文化研究所",
                "dep_ename": "Institute for Social Research and Cultural Studies",
                "cos_type": "必修",
                "cos_type_e": "Required",
                "crsoutline_type": null,
                "reg_num": "5",
                "depType": "G"
            },
            "1081_5868": {
                "acy": "108",
                "sem": "1",
                "cos_id": "5868",
                "cos_code": "ICS5007",
                "num_limit": "9999",
                "dep_limit": "*",
                "URL": null,
                "cos_cname": "個別研究",
                "cos_credit": "1.00",
                "cos_hours": "1.00",
                "TURL": "",
                "teacher": "邱德亮",
                "cos_time": "",
                "memo": "",
                "cos_ename": "Independent Study",
                "brief": "",
                "degree": "2",
                "dep_id": "49",
                "dep_primary": "1",
                "dep_cname": "社會與文化研究所",
                "dep_ename": "Institute for Social Research and Cultural Studies",
                "cos_type": "必修",
                "cos_type_e": "Required",
                "crsoutline_type": null,
                "reg_num": "2",
                "depType": "G"
            },
            "1081_5869": {
                "acy": "108",
                "sem": "1",
                "cos_id": "5869",
                "cos_code": "ICS5007",
                "num_limit": "9999",
                "dep_limit": "*",
                "URL": null,
                "cos_cname": "個別研究",
                "cos_credit": "1.00",
                "cos_hours": "1.00",
                "TURL": "",
                "teacher": "彭明偉",
                "cos_time": "",
                "memo": "",
                "cos_ename": "Independent Study",
                "brief": "",
                "degree": "2",
                "dep_id": "49",
                "dep_primary": "1",
                "dep_cname": "社會與文化研究所",
                "dep_ename": "Institute for Social Research and Cultural Studies",
                "cos_type": "必修",
                "cos_type_e": "Required",
                "crsoutline_type": null,
                "reg_num": "0",
                "depType": "G"
            },
            "1081_5870": {
                "acy": "108",
                "sem": "1",
                "cos_id": "5870",
                "cos_code": "ICS5007",
                "num_limit": "9999",
                "dep_limit": "*",
                "URL": null,
                "cos_cname": "個別研究",
                "cos_credit": "1.00",
                "cos_hours": "1.00",
                "TURL": "",
                "teacher": "林淑芬",
                "cos_time": "",
                "memo": "",
                "cos_ename": "Independent Study",
                "brief": "",
                "degree": "2",
                "dep_id": "49",
                "dep_primary": "1",
                "dep_cname": "社會與文化研究所",
                "dep_ename": "Institute for Social Research and Cultural Studies",
                "cos_type": "必修",
                "cos_type_e": "Required",
                "crsoutline_type": null,
                "reg_num": "2",
                "depType": "G"
            },
            "1081_5871": {
                "acy": "108",
                "sem": "1",
                "cos_id": "5871",
                "cos_code": "ICS5007",
                "num_limit": "9999",
                "dep_limit": "*",
                "URL": null,
                "cos_cname": "個別研究",
                "cos_credit": "1.00",
                "cos_hours": "1.00",
                "TURL": "",
                "teacher": "朱元鴻",
                "cos_time": "",
                "memo": "",
                "cos_ename": "Independent Study",
                "brief": "",
                "degree": "2",
                "dep_id": "49",
                "dep_primary": "1",
                "dep_cname": "社會與文化研究所",
                "dep_ename": "Institute for Social Research and Cultural Studies",
                "cos_type": "必修",
                "cos_type_e": "Required",
                "crsoutline_type": null,
                "reg_num": "0",
                "depType": "G"
            },
            "1081_5872": {
                "acy": "108",
                "sem": "1",
                "cos_id": "5872",
                "cos_code": "ICS5011",
                "num_limit": "9999",
                "dep_limit": "*",
                "URL": null,
                "cos_cname": "文化研究導論",
                "cos_credit": "3.00",
                "cos_hours": "3.00",
                "TURL": "",
                "teacher": "邱德亮、蔡華臻、林淑芬、彭明偉",
                "cos_time": "3CDX-F106A",
                "memo": "",
                "cos_ename": "Introduction to Cultural Studies",
                "brief": "",
                "degree": "2",
                "dep_id": "49",
                "dep_primary": "1",
                "dep_cname": "社會與文化研究所",
                "dep_ename": "Institute for Social Research and Cultural Studies",
                "cos_type": "必修",
                "cos_type_e": "Required",
                "crsoutline_type": null,
                "reg_num": "0",
                "depType": "G"
            },
            "1081_5873": {
                "acy": "108",
                "sem": "1",
                "cos_id": "5873",
                "cos_code": "ICS5219",
                "num_limit": "9999",
                "dep_limit": "*",
                "URL": null,
                "cos_cname": "國家形成與文化建構",
                "cos_credit": "3.00",
                "cos_hours": "3.00",
                "TURL": "",
                "teacher": "陳奕麟",
                "cos_time": "2EFG-F106A",
                "memo": "[English Medium Course]",
                "cos_ename": "Nation-State Formation as Cultural Construction",
                "brief": "",
                "degree": "2",
                "dep_id": "49",
                "dep_primary": "1",
                "dep_cname": "社會與文化研究所",
                "dep_ename": "Institute for Social Research and Cultural Studies",
                "cos_type": "選修",
                "cos_type_e": "Elective",
                "crsoutline_type": null,
                "reg_num": "1",
                "depType": "G"
            },
            "1081_5874": {
                "acy": "108",
                "sem": "1",
                "cos_id": "5874",
                "cos_code": "ICS5375",
                "num_limit": "9999",
                "dep_limit": "*",
                "URL": null,
                "cos_cname": "香港文化的歷史構成",
                "cos_credit": "3.00",
                "cos_hours": "3.00",
                "TURL": "",
                "teacher": "羅永生",
                "cos_time": "5EFG-F106A",
                "memo": "",
                "cos_ename": "Historical Construction of  Culture in Hong Kong ",
                "brief": "",
                "degree": "2",
                "dep_id": "49",
                "dep_primary": "1",
                "dep_cname": "社會與文化研究所",
                "dep_ename": "Institute for Social Research and Cultural Studies",
                "cos_type": "選修",
                "cos_type_e": "Elective",
                "crsoutline_type": null,
                "reg_num": "2",
                "depType": "G"
            },
            "1081_5875": {
                "acy": "108",
                "sem": "1",
                "cos_id": "5875",
                "cos_code": "ICS5376",
                "num_limit": "9999",
                "dep_limit": "*",
                "URL": null,
                "cos_cname": "社會思想當代議題:情感政治",
                "cos_credit": "3.00",
                "cos_hours": "3.00",
                "TURL": "",
                "teacher": "朱元鴻",
                "cos_time": "2IJK-F106A",
                "memo": "",
                "cos_ename": "Contemporary Issue in Social Thoughts: Politics of Affect",
                "brief": "",
                "degree": "2",
                "dep_id": "49",
                "dep_primary": "1",
                "dep_cname": "社會與文化研究所",
                "dep_ename": "Institute for Social Research and Cultural Studies",
                "cos_type": "選修",
                "cos_type_e": "Elective",
                "crsoutline_type": null,
                "reg_num": "9",
                "depType": "G"
            },
            "1081_5876": {
                "acy": "108",
                "sem": "1",
                "cos_id": "5876",
                "cos_code": "ICS5377",
                "num_limit": "9999",
                "dep_limit": "*",
                "URL": null,
                "cos_cname": "冷戰與後冷戰專題:營、基地、特區",
                "cos_credit": "3.00",
                "cos_hours": "3.00",
                "TURL": "",
                "teacher": "林淑芬",
                "cos_time": "2CDX-F106A",
                "memo": "",
                "cos_ename": "Cold War and Post-Cold War: Camp, Base, Zone",
                "brief": "",
                "degree": "2",
                "dep_id": "49",
                "dep_primary": "1",
                "dep_cname": "社會與文化研究所",
                "dep_ename": "Institute for Social Research and Cultural Studies",
                "cos_type": "選修",
                "cos_type_e": "Elective",
                "crsoutline_type": null,
                "reg_num": "2",
                "depType": "G"
            },
            "1081_5877": {
                "acy": "108",
                "sem": "1",
                "cos_id": "5877",
                "cos_code": "ICS5378",
                "num_limit": "9999",
                "dep_limit": "*",
                "URL": null,
                "cos_cname": "布爾迪厄與文學社會學",
                "cos_credit": "3.00",
                "cos_hours": "3.00",
                "TURL": "",
                "teacher": "邱德亮",
                "cos_time": "5CDX-F106A",
                "memo": "",
                "cos_ename": "Bourdieu and Sociology of Literature",
                "brief": "",
                "degree": "2",
                "dep_id": "49",
                "dep_primary": "1",
                "dep_cname": "社會與文化研究所",
                "dep_ename": "Institute for Social Research and Cultural Studies",
                "cos_type": "選修",
                "cos_type_e": "Elective",
                "crsoutline_type": null,
                "reg_num": "1",
                "depType": "G"
            },
            "1081_5878": {
                "acy": "108",
                "sem": "1",
                "cos_id": "5878",
                "cos_code": "ICS5379",
                "num_limit": "9999",
                "dep_limit": "*",
                "URL": null,
                "cos_cname": "當代兩岸文學專題",
                "cos_credit": "3.00",
                "cos_hours": "3.00",
                "TURL": "",
                "teacher": "彭明偉",
                "cos_time": "4CDX-F106A",
                "memo": "",
                "cos_ename": "Semianr on Contemporary Crposs-Strait Literature",
                "brief": "",
                "degree": "2",
                "dep_id": "49",
                "dep_primary": "1",
                "dep_cname": "社會與文化研究所",
                "dep_ename": "Institute for Social Research and Cultural Studies",
                "cos_type": "選修",
                "cos_type_e": "Elective",
                "crsoutline_type": null,
                "reg_num": "0",
                "depType": "G"
            },
            "1081_5879": {
                "acy": "108",
                "sem": "1",
                "cos_id": "5879",
                "cos_code": "ICS5380",
                "num_limit": "9999",
                "dep_limit": "*",
                "URL": null,
                "cos_cname": "情感性遭遇：影像，時間，感覺",
                "cos_credit": "3.00",
                "cos_hours": "3.00",
                "TURL": "",
                "teacher": "蔡華臻",
                "cos_time": "4EFG-F106A",
                "memo": "雙語授課",
                "cos_ename": "Affective Encounters: Image, Time, and Feelings",
                "brief": "",
                "degree": "2",
                "dep_id": "49",
                "dep_primary": "1",
                "dep_cname": "社會與文化研究所",
                "dep_ename": "Institute for Social Research and Cultural Studies",
                "cos_type": "選修",
                "cos_type_e": "Elective",
                "crsoutline_type": null,
                "reg_num": "3",
                "depType": "G"
            },
            "1081_5880": {
                "acy": "108",
                "sem": "1",
                "cos_id": "5880",
                "cos_code": "ICS5381",
                "num_limit": "9999",
                "dep_limit": "*",
                "URL": null,
                "cos_cname": "電影如何觸動我們的思考？",
                "cos_credit": "1.00",
                "cos_hours": "1.00",
                "TURL": "",
                "teacher": "布洛薩",
                "cos_time": "1CDX-F106A",
                "memo": "[English Medium Course]",
                "cos_ename": "\"How do Films make us Think?\"",
                "brief": "",
                "degree": "2",
                "dep_id": "49",
                "dep_primary": "1",
                "dep_cname": "社會與文化研究所",
                "dep_ename": "Institute for Social Research and Cultural Studies",
                "cos_type": "選修",
                "cos_type_e": "Elective",
                "crsoutline_type": null,
                "reg_num": "4",
                "depType": "G"
            },
            "1081_5881": {
                "acy": "108",
                "sem": "1",
                "cos_id": "5881",
                "cos_code": "ICS5382",
                "num_limit": "9999",
                "dep_limit": "*",
                "URL": null,
                "cos_cname": "移民的難題，疆界閉鎖的世界政治",
                "cos_credit": "1.00",
                "cos_hours": "1.00",
                "TURL": "",
                "teacher": "Rada Ivekovic",
                "cos_time": "",
                "memo": "[English Medium Course]",
                "cos_ename": "The Epochal Issue of Migrations, The Cosmopolitics of State Closure",
                "brief": "",
                "degree": "2",
                "dep_id": "49",
                "dep_primary": "1",
                "dep_cname": "社會與文化研究所",
                "dep_ename": "Institute for Social Research and Cultural Studies",
                "cos_type": "選修",
                "cos_type_e": "Elective",
                "crsoutline_type": null,
                "reg_num": "3",
                "depType": "G"
            }
        },
        "2": {
            "1081_4016": {
                "acy": "108",
                "sem": "1",
                "cos_id": "4016",
                "cos_code": "IHP5003",
                "num_limit": "9999",
                "dep_limit": "*",
                "URL": null,
                "cos_cname": "質化研究方法",
                "cos_credit": "3.00",
                "cos_hours": "3.00",
                "TURL": "http://hs.nctu.edu.tw/Faculty/YCCuang",
                "teacher": "莊雅仲",
                "cos_time": "5BCD-HK318",
                "memo": "",
                "cos_ename": "Qualitative Research Methods",
                "brief": "",
                "degree": "2",
                "dep_id": "49",
                "dep_primary": "2",
                "dep_cname": "社會與文化研究所",
                "dep_ename": "Institute for Social Research and Cultural Studies",
                "cos_type": "選修",
                "cos_type_e": "Elective",
                "crsoutline_type": "data",
                "reg_num": "5",
                "depType": "G"
            },
            "1081_5887": {
                "acy": "108",
                "sem": "1",
                "cos_id": "5887",
                "cos_code": "IAS5001",
                "num_limit": "9999",
                "dep_limit": "*",
                "URL": null,
                "cos_cname": "亞際文化研究導論",
                "cos_credit": "3.00",
                "cos_hours": "3.00",
                "TURL": "http://www.srcs.nctu.edu.tw/joyceliu/",
                "teacher": "劉紀蕙",
                "cos_time": "1EFG-F106A",
                "memo": "[English Medium Course]",
                "cos_ename": "Introduction to Inter-Asia Cultural Studies",
                "brief": "",
                "degree": "2",
                "dep_id": "49",
                "dep_primary": "2",
                "dep_cname": "社會與文化研究所",
                "dep_ename": "Institute for Social Research and Cultural Studies",
                "cos_type": "選修",
                "cos_type_e": "Elective",
                "crsoutline_type": null,
                "reg_num": "3",
                "depType": "G"
            }
        },
        "dep_id": "249",
        "dep_cname": "社會與文化研究所",
        "dep_ename": "Institute for Social Research and Cultural Studies",
        "costype": {
            "1081_4014": {
                "": {
                    "course_category_cname": "",
                    "course_category_ename": "",
                    "course_category_type": "",
                    "GECIName": "",
                    "GECIEngName": ""
                }
            },
            "1081_4016": {
                "": {
                    "course_category_cname": "",
                    "course_category_ename": "",
                    "course_category_type": "",
                    "GECIName": "",
                    "GECIEngName": ""
                }
            },
            "1081_5866": {
                "": {
                    "course_category_cname": "",
                    "course_category_ename": "",
                    "course_category_type": "",
                    "GECIName": "",
                    "GECIEngName": ""
                }
            },
            "1081_5867": {
                "": {
                    "course_category_cname": "",
                    "course_category_ename": "",
                    "course_category_type": "",
                    "GECIName": "",
                    "GECIEngName": ""
                }
            },
            "1081_5868": {
                "": {
                    "course_category_cname": "",
                    "course_category_ename": "",
                    "course_category_type": "",
                    "GECIName": "",
                    "GECIEngName": ""
                }
            },
            "1081_5869": {
                "": {
                    "course_category_cname": "",
                    "course_category_ename": "",
                    "course_category_type": "",
                    "GECIName": "",
                    "GECIEngName": ""
                }
            },
            "1081_5870": {
                "": {
                    "course_category_cname": "",
                    "course_category_ename": "",
                    "course_category_type": "",
                    "GECIName": "",
                    "GECIEngName": ""
                }
            },
            "1081_5871": {
                "": {
                    "course_category_cname": "",
                    "course_category_ename": "",
                    "course_category_type": "",
                    "GECIName": "",
                    "GECIEngName": ""
                }
            },
            "1081_5872": {
                "": {
                    "course_category_cname": "",
                    "course_category_ename": "",
                    "course_category_type": "",
                    "GECIName": "",
                    "GECIEngName": ""
                }
            },
            "1081_5873": {
                "": {
                    "course_category_cname": "",
                    "course_category_ename": "",
                    "course_category_type": "",
                    "GECIName": "",
                    "GECIEngName": ""
                }
            },
            "1081_5874": {
                "": {
                    "course_category_cname": "",
                    "course_category_ename": "",
                    "course_category_type": "",
                    "GECIName": "",
                    "GECIEngName": ""
                }
            },
            "1081_5875": {
                "": {
                    "course_category_cname": "",
                    "course_category_ename": "",
                    "course_category_type": "",
                    "GECIName": "",
                    "GECIEngName": ""
                }
            },
            "1081_5876": {
                "": {
                    "course_category_cname": "",
                    "course_category_ename": "",
                    "course_category_type": "",
                    "GECIName": "",
                    "GECIEngName": ""
                }
            },
            "1081_5877": {
                "": {
                    "course_category_cname": "",
                    "course_category_ename": "",
                    "course_category_type": "",
                    "GECIName": "",
                    "GECIEngName": ""
                }
            },
            "1081_5878": {
                "": {
                    "course_category_cname": "",
                    "course_category_ename": "",
                    "course_category_type": "",
                    "GECIName": "",
                    "GECIEngName": ""
                }
            },
            "1081_5879": {
                "": {
                    "course_category_cname": "",
                    "course_category_ename": "",
                    "course_category_type": "",
                    "GECIName": "",
                    "GECIEngName": ""
                }
            },
            "1081_5880": {
                "": {
                    "course_category_cname": "",
                    "course_category_ename": "",
                    "course_category_type": "",
                    "GECIName": "",
                    "GECIEngName": ""
                }
            },
            "1081_5881": {
                "": {
                    "course_category_cname": "",
                    "course_category_ename": "",
                    "course_category_type": "",
                    "GECIName": "",
                    "GECIEngName": ""
                }
            },
            "1081_5887": {
                "": {
                    "course_category_cname": "",
                    "course_category_ename": "",
                    "course_category_type": "",
                    "GECIName": "",
                    "GECIEngName": ""
                }
            }
        },
        "brief": {
            "1081_4014": {
                "": {
                    "brief_code": "",
                    "brief": ""
                }
            },
            "1081_4016": {
                "": {
                    "brief_code": "",
                    "brief": ""
                }
            },
            "1081_5866": {
                "": {
                    "brief_code": "",
                    "brief": ""
                }
            },
            "1081_5867": {
                "": {
                    "brief_code": "",
                    "brief": ""
                }
            },
            "1081_5868": {
                "": {
                    "brief_code": "",
                    "brief": ""
                }
            },
            "1081_5869": {
                "": {
                    "brief_code": "",
                    "brief": ""
                }
            },
            "1081_5870": {
                "": {
                    "brief_code": "",
                    "brief": ""
                }
            },
            "1081_5871": {
                "": {
                    "brief_code": "",
                    "brief": ""
                }
            },
            "1081_5872": {
                "": {
                    "brief_code": "",
                    "brief": ""
                }
            },
            "1081_5873": {
                "": {
                    "brief_code": "",
                    "brief": ""
                }
            },
            "1081_5874": {
                "": {
                    "brief_code": "",
                    "brief": ""
                }
            },
            "1081_5875": {
                "": {
                    "brief_code": "",
                    "brief": ""
                }
            },
            "1081_5876": {
                "": {
                    "brief_code": "",
                    "brief": ""
                }
            },
            "1081_5877": {
                "": {
                    "brief_code": "",
                    "brief": ""
                }
            },
            "1081_5878": {
                "": {
                    "brief_code": "",
                    "brief": ""
                }
            },
            "1081_5879": {
                "": {
                    "brief_code": "",
                    "brief": ""
                }
            },
            "1081_5880": {
                "": {
                    "brief_code": "",
                    "brief": ""
                }
            },
            "1081_5881": {
                "": {
                    "brief_code": "",
                    "brief": ""
                }
            },
            "1081_5887": {
                "": {
                    "brief_code": "",
                    "brief": ""
                }
            }
        },
        "language": {
            "1081_4014": {
                "授課語言代碼": "zh-tw"
            },
            "1081_4016": {
                "授課語言代碼": "zh-tw"
            },
            "1081_5866": {
                "授課語言代碼": "zh-tw"
            },
            "1081_5867": {
                "授課語言代碼": "zh-tw"
            },
            "1081_5868": {
                "授課語言代碼": "zh-tw"
            },
            "1081_5869": {
                "授課語言代碼": "zh-tw"
            },
            "1081_5870": {
                "授課語言代碼": "zh-tw"
            },
            "1081_5871": {
                "授課語言代碼": "zh-tw"
            },
            "1081_5872": {
                "授課語言代碼": "zh-tw"
            },
            "1081_5873": {
                "授課語言代碼": "en-us"
            },
            "1081_5874": {
                "授課語言代碼": "zh-tw"
            },
            "1081_5875": {
                "授課語言代碼": "zh-tw"
            },
            "1081_5876": {
                "授課語言代碼": "zh-tw"
            },
            "1081_5877": {
                "授課語言代碼": "zh-tw"
            },
            "1081_5878": {
                "授課語言代碼": "zh-tw"
            },
            "1081_5879": {
                "授課語言代碼": "zh-tw"
            },
            "1081_5880": {
                "授課語言代碼": "en-us"
            },
            "1081_5881": {
                "授課語言代碼": "en-us"
            },
            "1081_5887": {
                "授課語言代碼": "en-us"
            }
        }
    }
}